<?xml version="1.0" encoding="utf-8"?>
<!-- Generator: Adobe Illustrator 19.2.0, SVG Export Plug-In . SVG Version: 6.00 Build 0)  -->
<svg version="1.1" id="Layer_1" xmlns="http://www.w3.org/2000/svg" xmlns:xlink="http://www.w3.org/1999/xlink" x="0px" y="0px"
	 viewBox="0 0 20 16" style="enable-background:new 0 0 20 16;" xml:space="preserve">
<path d="M20,1.894c-0.736,0.321-1.527,0.539-2.357,0.636c0.847-0.5,1.498-1.291,1.804-2.235c-0.793,0.463-1.671,0.799-2.606,0.98
	C16.094,0.49,15.027,0,13.847,0c-2.266,0-4.103,1.808-4.103,4.039c0,0.316,0.036,0.625,0.106,0.92
	c-3.41-0.168-6.434-1.777-8.457-4.22C1.039,1.336,0.837,2.03,0.837,2.77c0,1.402,0.724,2.638,1.825,3.362
	C1.99,6.111,1.357,5.93,0.804,5.627c0,0.017,0,0.033,0,0.051c0,1.956,1.414,3.59,3.291,3.961C3.75,9.731,3.388,9.78,3.014,9.78
	c-0.264,0-0.521-0.026-0.772-0.072c0.522,1.605,2.038,2.772,3.833,2.805c-1.404,1.084-3.174,1.73-5.096,1.73
	c-0.331,0-0.658-0.02-0.979-0.057C1.816,15.331,3.973,16,6.29,16c7.547,0,11.675-6.155,11.675-11.492
	c0-0.175-0.004-0.349-0.012-0.522C18.754,3.415,19.45,2.704,20,1.894z"/>
</svg>
