{
    "key": "group_570df9584e16f",
    "title": "Tweets",
    "fields": [
        {
            "key": "field_570df969753a3",
            "label": "Twitter Data",
            "name": "twitter_data_wrap",
            "type": "repeater",
            "instructions": "",
            "required": 0,
            "conditional_logic": 0,
            "wrapper": {
                "width": "",
                "class": "",
                "id": ""
            },
            "collapsed": "",
            "min": 1,
            "max": 1,
            "layout": "row",
            "button_label": "Disabled",
            "sub_fields": [
                {
                    "key": "field_570df99f753a4",
                    "label": "Select tweets type",
                    "name": "twitter_select_tweets_type",
                    "type": "select",
                    "instructions": "",
                    "required": 0,
                    "conditional_logic": 0,
                    "wrapper": {
                        "width": "",
                        "class": "",
                        "id": ""
                    },
                    "choices": {
                        "hashtag": "Get tweets by hashtag",
                        "username": "Get tweets from user",
                        "user_hash": "Get tweets from user by hashtag"
                    },
                    "default_value": [],
                    "allow_null": 1,
                    "multiple": 0,
                    "ui": 0,
                    "ajax": 0,
                    "placeholder": "",
                    "disabled": 0,
                    "readonly": 0,
                    "return_format": "value"
                },
                {
                    "key": "field_570dfa8066f43",
                    "label": "Hashtags",
                    "name": "twitter_hashtags",
                    "type": "repeater",
                    "instructions": "",
                    "required": 0,
                    "conditional_logic": [
                        [
                            {
                                "field": "field_570df99f753a4",
                                "operator": "==",
                                "value": "hashtag"
                            }
                        ]
                    ],
                    "wrapper": {
                        "width": "",
                        "class": "",
                        "id": ""
                    },
                    "collapsed": "",
                    "min": 0,
                    "max": 0,
                    "layout": "table",
                    "button_label": "Add Hashtag",
                    "sub_fields": [
                        {
                            "key": "field_570dfaa566f44",
                            "label": "Hashtag (without #)",
                            "name": "hashtag",
                            "type": "text",
                            "instructions": "",
                            "required": 0,
                            "conditional_logic": 0,
                            "wrapper": {
                                "width": "",
                                "class": "",
                                "id": ""
                            },
                            "default_value": "",
                            "placeholder": "",
                            "prepend": "",
                            "append": "",
                            "maxlength": "",
                            "readonly": 0,
                            "disabled": 0
                        }
                    ]
                },
                {
                    "key": "field_570e147dc9c53",
                    "label": "Usernames",
                    "name": "twitter_usernames",
                    "type": "repeater",
                    "instructions": "",
                    "required": 0,
                    "conditional_logic": [
                        [
                            {
                                "field": "field_570df99f753a4",
                                "operator": "==",
                                "value": "username"
                            }
                        ]
                    ],
                    "wrapper": {
                        "width": "",
                        "class": "",
                        "id": ""
                    },
                    "collapsed": "",
                    "min": 0,
                    "max": 0,
                    "layout": "table",
                    "button_label": "Add Account",
                    "sub_fields": [
                        {
                            "key": "field_570e14cdc9c54",
                            "label": "Username (without @)",
                            "name": "username",
                            "type": "text",
                            "instructions": "",
                            "required": 0,
                            "conditional_logic": 0,
                            "wrapper": {
                                "width": "",
                                "class": "",
                                "id": ""
                            },
                            "default_value": "",
                            "placeholder": "",
                            "prepend": "",
                            "append": "",
                            "maxlength": "",
                            "readonly": 0,
                            "disabled": 0
                        }
                    ]
                },
                {
                    "key": "field_570e19d91c6af",
                    "label": "Hashtags from username",
                    "name": "twitter_users_hashtags",
                    "type": "repeater",
                    "instructions": "",
                    "required": 0,
                    "conditional_logic": [
                        [
                            {
                                "field": "field_570df99f753a4",
                                "operator": "==",
                                "value": "user_hash"
                            }
                        ]
                    ],
                    "wrapper": {
                        "width": "",
                        "class": "",
                        "id": ""
                    },
                    "collapsed": "",
                    "min": 0,
                    "max": 0,
                    "layout": "table",
                    "button_label": "Add Account",
                    "sub_fields": [
                        {
                            "key": "field_570e1aa11c6b0",
                            "label": "Username (without @)",
                            "name": "username",
                            "type": "text",
                            "instructions": "",
                            "required": 0,
                            "conditional_logic": 0,
                            "wrapper": {
                                "width": "",
                                "class": "",
                                "id": ""
                            },
                            "default_value": "",
                            "placeholder": "",
                            "prepend": "",
                            "append": "",
                            "maxlength": "",
                            "readonly": 0,
                            "disabled": 0
                        },
                        {
                            "key": "field_570e1b11082c3",
                            "label": "Hashtags",
                            "name": "hashtags",
                            "type": "repeater",
                            "instructions": "",
                            "required": 0,
                            "conditional_logic": 0,
                            "wrapper": {
                                "width": "",
                                "class": "",
                                "id": ""
                            },
                            "collapsed": "",
                            "min": 0,
                            "max": 0,
                            "layout": "table",
                            "button_label": "Add Hashtag",
                            "sub_fields": [
                                {
                                    "key": "field_570e1b3f082c4",
                                    "label": "Hashtag (without #)",
                                    "name": "hashtag",
                                    "type": "text",
                                    "instructions": "",
                                    "required": 0,
                                    "conditional_logic": 0,
                                    "wrapper": {
                                        "width": "",
                                        "class": "",
                                        "id": ""
                                    },
                                    "default_value": "",
                                    "placeholder": "",
                                    "prepend": "",
                                    "append": "",
                                    "maxlength": "",
                                    "readonly": 0,
                                    "disabled": 0
                                }
                            ]
                        }
                    ]
                },
                {
                    "key": "field_57148b0868083",
                    "label": "Use Advanced Settings",
                    "name": "twitter_use_advanced_settings",
                    "type": "true_false",
                    "instructions": "",
                    "required": 0,
                    "conditional_logic": 0,
                    "wrapper": {
                        "width": "",
                        "class": "",
                        "id": ""
                    },
                    "message": "",
                    "default_value": 0,
                    "ui": 0,
                    "ui_on_text": "",
                    "ui_off_text": ""
                },
                {
                    "key": "field_57148960781dc",
                    "label": "Advanced Settings",
                    "name": "twitter_advanced_settings",
                    "type": "repeater",
                    "instructions": "Advanced search parameters - <a href=\"https:\/\/dev.twitter.com\/rest\/reference\/get\/search\/tweets\" target=\"_blank\">Twitter Search API<\/a>.",
                    "required": 0,
                    "conditional_logic": [
                        [
                            {
                                "field": "field_57148b0868083",
                                "operator": "==",
                                "value": "1"
                            }
                        ]
                    ],
                    "wrapper": {
                        "width": "",
                        "class": "",
                        "id": ""
                    },
                    "collapsed": "",
                    "min": 1,
                    "max": 1,
                    "layout": "row",
                    "button_label": "Disabled",
                    "sub_fields": [
                        {
                            "key": "field_5714a68e53316",
                            "label": "Hashtags Operator",
                            "name": "twitter_hashtags_operator",
                            "type": "select",
                            "instructions": "Select operator for hashtags. \r\n<ul>\r\n<li><code>OR<\/code> will get tweets containing at least one of specified hashtags<\/li> \r\n<li><code>AND<\/code> will get only those tweets containing all specified hashtags<\/li>\r\n<li>Default is <code>OR<\/code><\/li>\r\n<\/ul>",
                            "required": 0,
                            "conditional_logic": [
                                [
                                    {
                                        "field": "field_570df99f753a4",
                                        "operator": "==",
                                        "value": "hashtag"
                                    }
                                ],
                                [
                                    {
                                        "field": "field_570df99f753a4",
                                        "operator": "==",
                                        "value": "user_hash"
                                    }
                                ]
                            ],
                            "wrapper": {
                                "width": "",
                                "class": "",
                                "id": ""
                            },
                            "choices": {
                                "OR": "OR",
                                "AND": "AND"
                            },
                            "default_value": [
                                "OR"
                            ],
                            "allow_null": 0,
                            "multiple": 0,
                            "ui": 0,
                            "ajax": 0,
                            "placeholder": "",
                            "disabled": 0,
                            "readonly": 0,
                            "return_format": "value"
                        },
                        {
                            "key": "field_576cfc2eefee2",
                            "label": "Include Re-Tweets",
                            "name": "twitter_include_retweets",
                            "type": "true_false",
                            "instructions": "",
                            "required": 0,
                            "conditional_logic": [
                                [
                                    {
                                        "field": "field_570df99f753a4",
                                        "operator": "==",
                                        "value": "username"
                                    }
                                ],
                                [
                                    {
                                        "field": "field_570df99f753a4",
                                        "operator": "==",
                                        "value": "user_hash"
                                    }
                                ]
                            ],
                            "wrapper": {
                                "width": "",
                                "class": "",
                                "id": ""
                            },
                            "message": "",
                            "default_value": 0,
                            "ui": 0,
                            "ui_on_text": "",
                            "ui_off_text": ""
                        },
                        {
                            "key": "field_576cfccd64af3",
                            "label": "Display Re-Tweets As",
                            "name": "twitter_display_retweets",
                            "type": "select",
                            "instructions": "",
                            "required": 0,
                            "conditional_logic": [
                                [
                                    {
                                        "field": "field_576cfc2eefee2",
                                        "operator": "==",
                                        "value": "1"
                                    }
                                ]
                            ],
                            "wrapper": {
                                "width": "",
                                "class": "",
                                "id": ""
                            },
                            "choices": {
                                "original_author": "by original author",
                                "retweet_author": "by re-tweet author"
                            },
                            "default_value": [],
                            "allow_null": 0,
                            "multiple": 0,
                            "ui": 0,
                            "ajax": 0,
                            "placeholder": "",
                            "disabled": 0,
                            "readonly": 0,
                            "return_format": "value"
                        },
                        {
                            "key": "field_57148995781dd",
                            "label": "Result Type",
                            "name": "twitter_result_type",
                            "type": "select",
                            "instructions": "Specifies what type of search results you would prefer to receive. The current default is <code>recent<\/code>. Valid values include:\r\n<ul>\r\n<li><strong>mixed<\/strong>: Include both popular and real time results in the response.<\/li>\r\n<li><strong>recent<\/strong>: return only the most recent results in the response<\/li>\r\n<li><strong>popular<\/strong>: return only the most popular results in the response.<\/li>\r\n<\/ul>",
                            "required": 0,
                            "conditional_logic": 0,
                            "wrapper": {
                                "width": "",
                                "class": "",
                                "id": ""
                            },
                            "choices": {
                                "mixed": "Mixed",
                                "recent": "Recent",
                                "popular": "Popular"
                            },
                            "default_value": [],
                            "allow_null": 1,
                            "multiple": 0,
                            "ui": 0,
                            "ajax": 0,
                            "placeholder": "",
                            "disabled": 0,
                            "readonly": 0,
                            "return_format": "value"
                        },
                        {
                            "key": "field_57148f1a18bcd",
                            "label": "Tweets Count",
                            "name": "twitter_tweets_count",
                            "type": "number",
                            "instructions": "The number of tweets to return per request, up to a maximum of 100. Default is <code>15<\/code>.",
                            "required": 0,
                            "conditional_logic": 0,
                            "wrapper": {
                                "width": "",
                                "class": "",
                                "id": ""
                            },
                            "default_value": "",
                            "placeholder": "",
                            "prepend": "",
                            "append": "",
                            "min": "",
                            "max": 100,
                            "step": "",
                            "readonly": 0,
                            "disabled": 0
                        },
                        {
                            "key": "field_57148fe0f2b75",
                            "label": "Language",
                            "name": "twitter_tweets_language",
                            "type": "text",
                            "instructions": "Restricts tweets to the given language, given by an <a href=\"https:\/\/en.wikipedia.org\/wiki\/List_of_ISO_639-1_codes\" target=\"_blank\">ISO 639-1 code<\/a>. \r\n<ul>\r\n<li>For all languages type <code>all<\/code>.<\/li>\r\n<li>Default is <code>en<\/code>. <\/li>\r\n<\/ul>",
                            "required": 0,
                            "conditional_logic": 0,
                            "wrapper": {
                                "width": "",
                                "class": "",
                                "id": ""
                            },
                            "default_value": "",
                            "placeholder": "",
                            "prepend": "",
                            "append": "",
                            "maxlength": "",
                            "readonly": 0,
                            "disabled": 0
                        }
                    ]
                }
            ]
        }
    ],
    "location": [
        [
            {
                "param": "options_page",
                "operator": "==",
                "value": "buzz-options-twitter"
            }
        ]
    ],
    "menu_order": 1,
    "position": "normal",
    "style": "default",
    "label_placement": "top",
    "instruction_placement": "label",
    "hide_on_screen": "",
    "active": 1,
    "description": "",
    "modified": 1487061036
}